{
  "events": [
    {
      "date": "2025-09-05T12:00:00Z",
      "title": "Asahi - Warehouse site on Tilburn Rd, Deer Park, VIC - Phase 1 Determination",
      "display_title": "Phase 1 - initial assessment determination: Approved",
      "url": "https://www.accc.gov.au/system/files/public-merger-register/documents/Asahi%20warehouse%20lease%20-%20Determination%20-%20September%205.pdf",
      "url_gh": "/matters/MN-01016/Asahi warehouse lease - Determination - September 5.pdf",
      "status": "live",
      "merger_id": "MN-01016",
      "merger_name": "Asahi \u2013 Warehouse site on Tilburn Rd, Deer Park (Vic)",
      "phase": "Phase 1",
      "is_waiver": false
    },
    {
      "date": "2025-08-29T12:00:00Z",
      "title": "Kongsberg Defence - site within Newcastle Airport precinct - Phase 1 Determination",
      "display_title": "Phase 1 - initial assessment determination: Approved",
      "url": "https://www.accc.gov.au/system/files/public-merger-register/documents/Kongsberg%20Defence%20-%20Newcastle%20Airport%20-%20Phase%201%20Determination%20290825.pdf",
      "url_gh": "/matters/MN-01017/Kongsberg Defence - Newcastle Airport - Phase 1 Determination 290825.pdf",
      "status": "live",
      "merger_id": "MN-01017",
      "merger_name": "Kongsberg Defence \u2013 site within Newcastle Airport precinct",
      "phase": "Phase 1",
      "is_waiver": false
    },
    {
      "date": "2025-08-18T12:00:00Z",
      "title": "Questionnaire released for Asahi Deer Park acquisition",
      "display_title": "Questionnaire released for Asahi Deer Park acquisition",
      "url": "https://www.accc.gov.au/system/files/public-merger-register/documents/Questionnaire%20-%20Asahi_2.docx",
      "url_gh": "/matters/MN-01016/Questionnaire - Asahi_2.pdf",
      "status": "removed",
      "merger_id": "MN-01016",
      "merger_name": "Asahi \u2013 Warehouse site on Tilburn Rd, Deer Park (Vic)",
      "phase": null,
      "is_waiver": false
    },
    {
      "date": "2025-08-15T12:00:00Z",
      "title": "Merger notified to ACCC",
      "display_title": "Merger notified to ACCC",
      "url": null,
      "url_gh": null,
      "status": null,
      "merger_id": "MN-01016",
      "merger_name": "Asahi \u2013 Warehouse site on Tilburn Rd, Deer Park (Vic)",
      "phase": "Phase 1",
      "is_waiver": false
    },
    {
      "date": "2025-08-11T12:00:00Z",
      "title": "Questionnaire released for Kongsberg Defence acquisition of site within Newcastle Airport",
      "display_title": "Questionnaire released for Kongsberg Defence acquisition of site within Newcastle Airport",
      "url": "https://www.accc.gov.au/system/files/public-merger-register/documents/Kongsberg%20-%20FINAL%20-%20third-party%20questionnaire%20-%20August%202025_2.docx",
      "url_gh": "/matters/MN-01017/Kongsberg - FINAL - third-party questionnaire - August 2025_2.pdf",
      "status": "removed",
      "merger_id": "MN-01017",
      "merger_name": "Kongsberg Defence \u2013 site within Newcastle Airport precinct",
      "phase": null,
      "is_waiver": false
    },
    {
      "date": "2025-08-08T12:00:00Z",
      "title": "Merger notified to ACCC",
      "display_title": "Merger notified to ACCC",
      "url": null,
      "url_gh": null,
      "status": null,
      "merger_id": "MN-01017",
      "merger_name": "Kongsberg Defence \u2013 site within Newcastle Airport precinct",
      "phase": "Phase 1",
      "is_waiver": false
    }
  ],
  "page": 3,
  "page_size": 100,
  "total": 206,
  "total_pages": 3
}