{
  "mergers": [
    {
      "merger_id": "WA-40004",
      "merger_name": "Vets Central \u2013 Gawler Animal Hospital and Animalia Vet Clinic",
      "status": "Assessment completed",
      "accc_determination": "Approved",
      "is_waiver": true,
      "effective_notification_datetime": "2026-01-29T12:00:00Z",
      "determination_publication_date": "2026-02-12T12:00:00Z",
      "end_of_determination_period": null,
      "stage": "Waiver application",
      "acquirers": [
        {
          "name": "VC OPERATIONS (WA) PTY LTD",
          "identifier_type": "ABN",
          "identifier": "28 646 499 005"
        },
        {
          "name": "VETS CENTRAL HOLDINGS PTY LTD",
          "identifier_type": "ABN",
          "identifier": "60 652 812 256"
        }
      ],
      "targets": [
        {
          "name": "Gawler Animal Hospital Pty Ltd",
          "identifier_type": "ABN",
          "identifier": "87 160 265 109"
        },
        {
          "name": "GAH 2.0 PTY LTD",
          "identifier_type": "ABN",
          "identifier": "76 666 800 666"
        }
      ],
      "other_parties": [],
      "anzsic_codes": [
        {
          "code": "6970",
          "name": "Veterinary Services"
        },
        {
          "code": "9539",
          "name": "Other Personal Services n.e.c."
        }
      ],
      "url": "https://www.accc.gov.au/public-registers/mergers-and-acquisitions-registers/acquisitions-register/vets-central-%E2%80%93-gawler-animal-hospital-and-animalia-vet-clinic"
    },
    {
      "merger_id": "WA-45001",
      "merger_name": "Paragon Care \u2013 Presidental",
      "status": "Assessment completed",
      "accc_determination": "Approved",
      "is_waiver": true,
      "effective_notification_datetime": "2026-01-30T12:00:00Z",
      "determination_publication_date": "2026-02-16T12:00:00Z",
      "end_of_determination_period": null,
      "stage": "Waiver application",
      "acquirers": [
        {
          "name": "PARAGON CARE LIMITED",
          "identifier_type": "ABN",
          "identifier": "76 064 551 426"
        },
        {
          "name": "CLIFFORD HALLAM HEALTHCARE PTY LIMITED",
          "identifier_type": "ABN",
          "identifier": "38 001 655 554"
        }
      ],
      "targets": [
        {
          "name": "ROCKPAC SOUTH PACIFIC PTY LTD",
          "identifier_type": "ABN",
          "identifier": "40 639 100 422"
        },
        {
          "name": "PRESIDENTAL PTY LIMITED",
          "identifier_type": "ABN",
          "identifier": "77 002 697 896"
        }
      ],
      "other_parties": [],
      "anzsic_codes": [
        {
          "code": "3491",
          "name": "Professional and Scientific Goods Wholesaling"
        }
      ],
      "url": "https://www.accc.gov.au/public-registers/mergers-and-acquisitions-registers/acquisitions-register/paragon-care-%E2%80%93-presidental"
    },
    {
      "merger_id": "WA-55004",
      "merger_name": "Blackbird Ventures \u2013 Baseten Labs",
      "status": "Assessment completed",
      "accc_determination": "Approved",
      "is_waiver": true,
      "effective_notification_datetime": "2026-01-29T12:00:00Z",
      "determination_publication_date": "2026-02-10T12:00:00Z",
      "end_of_determination_period": null,
      "stage": "Waiver application",
      "acquirers": [
        {
          "name": "Blackbird FOF25 Pty Ltd as trustee for Blackbird Ventures 2025 Follow-On Fund Trust",
          "identifier_type": "ABN",
          "identifier": "49 711 375 395"
        }
      ],
      "targets": [
        {
          "name": "Baseten Labs, Inc",
          "identifier_type": null,
          "identifier": "EIN 371950658"
        }
      ],
      "other_parties": [
        {
          "name": "Blackbird Ventures Pty Ltd",
          "identifier_type": "ABN",
          "identifier": "93 159 044 989"
        }
      ],
      "anzsic_codes": [
        {
          "code": "2461",
          "name": "Agricultural Machinery and Equipment Manufacturing"
        },
        {
          "code": "5420",
          "name": "Software Publishing"
        },
        {
          "code": "5700",
          "name": "Internet Publishing and Broadcasting"
        },
        {
          "code": "6910",
          "name": "Scientific Research Services"
        },
        {
          "code": "7000",
          "name": "Computer System Design and Related Services"
        }
      ],
      "url": "https://www.accc.gov.au/public-registers/mergers-and-acquisitions-registers/acquisitions-register/blackbird-ventures-%E2%80%93-baseten-labs"
    },
    {
      "merger_id": "WA-60006",
      "merger_name": "Re.Group \u2013 Scouts Queensland Recycling Centre Site",
      "status": "Assessment completed",
      "accc_determination": "Approved",
      "is_waiver": true,
      "effective_notification_datetime": "2026-01-14T12:00:00Z",
      "determination_publication_date": "2026-01-29T12:00:00Z",
      "end_of_determination_period": null,
      "stage": "Waiver application",
      "acquirers": [
        {
          "name": "RETURN IT PTY LTD",
          "identifier_type": "ABN",
          "identifier": "61 615 434 869"
        }
      ],
      "targets": [
        {
          "name": "THE SCOUT ASSOCIATION OF AUSTRALIA, SOUTH AUSTRALIAN BRANCH INCORPORATED",
          "identifier_type": "ABN",
          "identifier": "35 621 021 366"
        }
      ],
      "other_parties": [
        {
          "name": "RE.GROUP PTY LIMITED",
          "identifier_type": "ACN",
          "identifier": "616 439 779"
        }
      ],
      "anzsic_codes": [
        {
          "code": "2919",
          "name": "Other Waste Collection Services"
        }
      ],
      "url": "https://www.accc.gov.au/public-registers/mergers-and-acquisitions-registers/acquisitions-register/regroup-%E2%80%93-scouts-queensland-recycling-centre-site"
    },
    {
      "merger_id": "WA-60008",
      "merger_name": "Warburg Pincus \u2013 Acclime",
      "status": "Assessment completed",
      "accc_determination": "Approved",
      "is_waiver": true,
      "effective_notification_datetime": "2026-01-20T12:00:00Z",
      "determination_publication_date": "2026-01-30T12:00:00Z",
      "end_of_determination_period": null,
      "stage": "Waiver application",
      "acquirers": [
        {
          "name": "Achronite Bidco Ltd",
          "identifier_type": null,
          "identifier": ""
        }
      ],
      "targets": [
        {
          "name": "Acclime Holdings HK Limited",
          "identifier_type": null,
          "identifier": "BRN  70084973"
        },
        {
          "name": "Acclime Holdings Limited",
          "identifier_type": null,
          "identifier": "BRN  70084973"
        }
      ],
      "other_parties": [
        {
          "name": "Warburg Pincus LLC",
          "identifier_type": null,
          "identifier": ""
        }
      ],
      "anzsic_codes": [
        {
          "code": "6240",
          "name": "Financial Asset Investing"
        },
        {
          "code": "6419",
          "name": "Other Auxiliary Finance and Investment Services"
        },
        {
          "code": "6932",
          "name": "Accounting Services"
        },
        {
          "code": "7291",
          "name": "Office Administrative Services"
        }
      ],
      "url": "https://www.accc.gov.au/public-registers/mergers-and-acquisitions-registers/acquisitions-register/warburg-pincus-%E2%80%93-acclime"
    },
    {
      "merger_id": "WA-65003",
      "merger_name": "Henkel \u2013 ATP adhesive systems group",
      "status": "Assessment completed",
      "accc_determination": "Not approved",
      "is_waiver": true,
      "effective_notification_datetime": "2026-01-19T12:00:00Z",
      "determination_publication_date": "2026-02-05T12:00:00Z",
      "end_of_determination_period": null,
      "stage": "Waiver application",
      "acquirers": [
        {
          "name": "Henkel Global Supply Chain B.V.",
          "identifier_type": null,
          "identifier": "Netherlands registration number: 854017447, CCI 60683945"
        }
      ],
      "targets": [
        {
          "name": "Aqua Adhesives I GmbH",
          "identifier_type": null,
          "identifier": "Swiss registration number  CH170.4.019.1870"
        }
      ],
      "other_parties": [
        {
          "name": "Henkel AG & Co. KGaA",
          "identifier_type": null,
          "identifier": "HRB  4724"
        },
        {
          "name": "ATP adhesive systems Group GmbH",
          "identifier_type": null,
          "identifier": ""
        }
      ],
      "anzsic_codes": [
        {
          "code": "1851",
          "name": "Cleaning Compound Manufacturing"
        },
        {
          "code": "1852",
          "name": "Cosmetic and Toiletry Preparation Manufacturing"
        },
        {
          "code": "1915",
          "name": "Adhesive Manufacturing"
        },
        {
          "code": "6240",
          "name": "Financial Asset Investing"
        }
      ],
      "url": "https://www.accc.gov.au/public-registers/mergers-and-acquisitions-registers/acquisitions-register/henkel-%E2%80%93-atp-adhesive-systems-group"
    },
    {
      "merger_id": "WA-65004",
      "merger_name": "Kee Safety - RIS Safety",
      "status": "Assessment completed",
      "accc_determination": "Approved",
      "is_waiver": true,
      "effective_notification_datetime": "2026-02-02T12:00:00Z",
      "determination_publication_date": "2026-02-13T12:00:00Z",
      "end_of_determination_period": null,
      "stage": "Waiver application",
      "acquirers": [
        {
          "name": "Cielo TopCo Limited",
          "identifier_type": null,
          "identifier": "CRN  16320933"
        },
        {
          "name": "Kee Safety (Australia) Pty Ltd",
          "identifier_type": "ACN",
          "identifier": "694 369 116"
        }
      ],
      "targets": [
        {
          "name": "HALLWELD BENNETT PTY LTD",
          "identifier_type": "ABN",
          "identifier": "15 161 086 595"
        },
        {
          "name": "RIS SAFETY HOLDINGS PTY LTD",
          "identifier_type": "ABN",
          "identifier": "19 668 836 351"
        },
        {
          "name": "RTO SAFETY TRAINING PTY LIMITED",
          "identifier_type": "ABN",
          "identifier": "89 164 524 994"
        },
        {
          "name": "RISSAFETY ENTERPRISES PTY LTD",
          "identifier_type": "ABN",
          "identifier": "62 152 879 082"
        },
        {
          "name": "RISSAFETY PTY LTD",
          "identifier_type": "ABN",
          "identifier": "46 008 445 458"
        },
        {
          "name": "W.C. SALES PTY. LTD.",
          "identifier_type": "ABN",
          "identifier": "13 067 394 281"
        },
        {
          "name": "Sydney Safety Training Pty Limited",
          "identifier_type": "ABN",
          "identifier": "12 158 377 532"
        },
        {
          "name": "SST VILLAWOOD PTY LTD",
          "identifier_type": "ABN",
          "identifier": "86 649 992 487"
        },
        {
          "name": "SAFETY TRAINING GROUP PTY LTD",
          "identifier_type": "ABN",
          "identifier": "85 158 347 490"
        }
      ],
      "other_parties": [],
      "anzsic_codes": [
        {
          "code": "3019",
          "name": "Other Residential Building Construction"
        },
        {
          "code": "3020",
          "name": "Non-Residential Building Construction"
        }
      ],
      "url": "https://www.accc.gov.au/public-registers/mergers-and-acquisitions-registers/acquisitions-register/kee-safety-ris-safety"
    },
    {
      "merger_id": "WA-70002",
      "merger_name": "Ethos (TPG) \u2013 EMIS and certain related assets",
      "status": "Assessment completed",
      "accc_determination": "Approved",
      "is_waiver": true,
      "effective_notification_datetime": "2026-01-03T12:00:00Z",
      "determination_publication_date": "2026-01-13T12:00:00Z",
      "end_of_determination_period": null,
      "stage": "Waiver application",
      "acquirers": [
        {
          "name": "Ethos Bidco, Ltd",
          "identifier_type": null,
          "identifier": "UK Company Number: 16905190"
        }
      ],
      "targets": [
        {
          "name": "EMIS Group Limited",
          "identifier_type": "ABN",
          "identifier": "75 075 102 028"
        },
        {
          "name": "UnitedHealth Group Incorporated (UHG)",
          "identifier_type": null,
          "identifier": "US EIN  4113221939"
        }
      ],
      "other_parties": [
        {
          "name": "TPG, Inc",
          "identifier_type": null,
          "identifier": "US EIN  872063362"
        }
      ],
      "anzsic_codes": [
        {
          "code": "5420",
          "name": "Software Publishing"
        }
      ],
      "url": "https://www.accc.gov.au/public-registers/mergers-and-acquisitions-registers/acquisitions-register/ethos-tpg-%E2%80%93-emis-and-certain-related-assets"
    },
    {
      "merger_id": "WA-70003",
      "merger_name": "Intrepid Travel \u2013 Wild Bush Luxury",
      "status": "Assessment completed",
      "accc_determination": "Not approved",
      "is_waiver": true,
      "effective_notification_datetime": "2026-01-20T12:00:00Z",
      "determination_publication_date": "2026-02-05T12:00:00Z",
      "end_of_determination_period": null,
      "stage": "Waiver application",
      "acquirers": [
        {
          "name": "INTREPID TRAVEL PTY LTD",
          "identifier_type": "ABN",
          "identifier": "35 007 172 456"
        }
      ],
      "targets": [
        {
          "name": "EXPERIENCE CO LIMITED",
          "identifier_type": "ABN",
          "identifier": "56 167 320 470"
        },
        {
          "name": "WILD BUSH LUXURY EXPERIENCE PTY LTD",
          "identifier_type": "ABN",
          "identifier": "47 648 431 734"
        }
      ],
      "other_parties": [
        {
          "name": "INTREPID GROUP PTY LTD",
          "identifier_type": "ABN",
          "identifier": "30 131 952 513"
        }
      ],
      "anzsic_codes": [
        {
          "code": "4400",
          "name": "Accommodation"
        },
        {
          "code": "5010",
          "name": "Scenic and Sightseeing Transport"
        },
        {
          "code": "7220",
          "name": "Travel Agency and Tour Arrangement Services"
        },
        {
          "code": "8922",
          "name": "Nature Reserves and Conservation Parks Operation"
        }
      ],
      "url": "https://www.accc.gov.au/public-registers/mergers-and-acquisitions-registers/acquisitions-register/intrepid-travel-%E2%80%93-wild-bush-luxury"
    },
    {
      "merger_id": "WA-80001",
      "merger_name": "Alpine Software Group (ASG) \u2013 PlayHQ",
      "status": "Assessment completed",
      "accc_determination": "Approved",
      "is_waiver": true,
      "effective_notification_datetime": "2026-01-19T12:00:00Z",
      "determination_publication_date": "2026-01-29T12:00:00Z",
      "end_of_determination_period": null,
      "stage": "Waiver application",
      "acquirers": [
        {
          "name": "Arena BidCo Pty Ltd",
          "identifier_type": "ACN",
          "identifier": "693 657 484"
        }
      ],
      "targets": [
        {
          "name": "RFGI GROUP PTY LTD",
          "identifier_type": "ABN",
          "identifier": "55 630 028 974"
        },
        {
          "name": "GAMEON HOLDINGS PTY LTD",
          "identifier_type": "ABN",
          "identifier": "47 629 422 206"
        }
      ],
      "other_parties": [
        {
          "name": "ASG IV, LLC",
          "identifier_type": null,
          "identifier": "EIN  393804433"
        },
        {
          "name": "PLAYHQ SPORTS PTY LTD",
          "identifier_type": "ABN",
          "identifier": "11 624 565 359"
        },
        {
          "name": "PlayHQ Sports UK Limited",
          "identifier_type": null,
          "identifier": "UK registered company  16260012"
        },
        {
          "name": "PlayHQ Sports Ltd",
          "identifier_type": null,
          "identifier": "Canadian registered company  1001392583"
        },
        {
          "name": "Arena HoldCo Pty Ltd",
          "identifier_type": "ACN",
          "identifier": "693 657 162"
        }
      ],
      "anzsic_codes": [
        {
          "code": "7000",
          "name": "Computer System Design and Related Services"
        },
        {
          "code": "9112",
          "name": "Sports and Physical Recreation Clubs and Sports Professionals"
        }
      ],
      "url": "https://www.accc.gov.au/public-registers/mergers-and-acquisitions-registers/acquisitions-register/alpine-software-group-asg-%E2%80%93-playhq"
    },
    {
      "merger_id": "WA-85004",
      "merger_name": "Treysta Wealth Management \u2013 Locumsgroup",
      "status": "Assessment completed",
      "accc_determination": "Approved",
      "is_waiver": true,
      "effective_notification_datetime": "2026-01-03T12:00:00Z",
      "determination_publication_date": "2026-01-27T12:00:00Z",
      "end_of_determination_period": null,
      "stage": "Waiver application",
      "acquirers": [
        {
          "name": "Treysta Wealth Management Pty Ltd",
          "identifier_type": "ABN",
          "identifier": "87 151 156 222"
        }
      ],
      "targets": [
        {
          "name": "Locumsgroup Private Accounting Services Pty Limited",
          "identifier_type": "ABN",
          "identifier": "66 116 993 670"
        },
        {
          "name": "Locumsgroup Asset Management Pty Ltd",
          "identifier_type": "ABN",
          "identifier": "71 113 009 626"
        },
        {
          "name": "Locums Nominees Pty Limited",
          "identifier_type": "ACN",
          "identifier": "084 426 415"
        }
      ],
      "other_parties": [
        {
          "name": "AZ NEXT GENERATION ADVISORY PTY LTD",
          "identifier_type": "ABN",
          "identifier": "57 167 960 018"
        }
      ],
      "anzsic_codes": [
        {
          "code": "6419",
          "name": "Other Auxiliary Finance and Investment Services"
        },
        {
          "code": "6932",
          "name": "Accounting Services"
        }
      ],
      "url": "https://www.accc.gov.au/public-registers/mergers-and-acquisitions-registers/acquisitions-register/treysta-wealth-management-%E2%80%93-locumsgroup"
    },
    {
      "merger_id": "WA-85005",
      "merger_name": "Altor Fund Manager - Evac Holding Oy",
      "status": "Assessment completed",
      "accc_determination": "Approved",
      "is_waiver": true,
      "effective_notification_datetime": "2026-01-12T12:00:00Z",
      "determination_publication_date": "2026-01-30T12:00:00Z",
      "end_of_determination_period": null,
      "stage": "Waiver application",
      "acquirers": [
        {
          "name": "CAVE BidCo Oy",
          "identifier_type": null,
          "identifier": "Business Identity Code 35317614"
        }
      ],
      "targets": [
        {
          "name": "Evac Holding Oy",
          "identifier_type": null,
          "identifier": "Business Identity Code 28586576"
        }
      ],
      "other_parties": [
        {
          "name": "Altor Fund Manager AB",
          "identifier_type": null,
          "identifier": ""
        }
      ],
      "anzsic_codes": [
        {
          "code": "2919",
          "name": "Other Waste Collection Services"
        }
      ],
      "url": "https://www.accc.gov.au/public-registers/mergers-and-acquisitions-registers/acquisitions-register/altor-fund-manager-evac-holding-oy"
    },
    {
      "merger_id": "WA-95005",
      "merger_name": "HCLTech - Jaspersoft",
      "status": "Assessment completed",
      "accc_determination": "Approved",
      "is_waiver": true,
      "effective_notification_datetime": "2026-02-05T12:00:00Z",
      "determination_publication_date": "2026-02-19T12:00:00Z",
      "end_of_determination_period": null,
      "stage": "Waiver application",
      "acquirers": [
        {
          "name": "HCL Technologies Limited",
          "identifier_type": "ABN",
          "identifier": "37 541 578 951"
        }
      ],
      "targets": [
        {
          "name": "CLOUD SOFTWARE GROUP AUSTRALIA PTY LTD",
          "identifier_type": "ABN",
          "identifier": "94 092 002 321"
        }
      ],
      "other_parties": [],
      "anzsic_codes": [
        {
          "code": "5420",
          "name": "Software Publishing"
        },
        {
          "code": "7000",
          "name": "Computer System Design and Related Services"
        }
      ],
      "url": "https://www.accc.gov.au/public-registers/mergers-and-acquisitions-registers/acquisitions-register/hcltech-jaspersoft"
    }
  ],
  "page": 2,
  "page_size": 50,
  "total": 63,
  "total_pages": 2
}