{
  "mergers": [
    {
      "merger_id": "WA-95008",
      "merger_name": "Vets Central \u2013 West Toowoomba Veterinary Surgery in QLD",
      "status": "Assessment completed",
      "accc_determination": "Approved",
      "is_waiver": true,
      "effective_notification_datetime": "2026-03-04T12:00:00Z",
      "determination_publication_date": "2026-03-10T12:00:00Z",
      "end_of_determination_period": null,
      "stage": "Waiver application",
      "acquirers": [
        {
          "name": "VC OPERATIONS (WA) PTY LTD",
          "identifier_type": "ABN",
          "identifier": "28 646 499 005"
        }
      ],
      "targets": [
        {
          "name": "The trustee for the Burke Family Trust",
          "identifier_type": "ABN",
          "identifier": "35 834 715 269"
        }
      ],
      "other_parties": [
        {
          "name": "VETS CENTRAL HOLDINGS PTY LTD",
          "identifier_type": "ABN",
          "identifier": "60 652 812 256"
        }
      ],
      "anzsic_codes": [
        {
          "code": "6970",
          "name": "Veterinary Services"
        },
        {
          "code": "9539",
          "name": "Other Personal Services n.e.c."
        }
      ],
      "url": "https://www.accc.gov.au/public-registers/mergers-and-acquisitions-registers/acquisitions-register/vets-central-%E2%80%93-west-toowoomba-veterinary-surgery-in-qld"
    }
  ],
  "page": 3,
  "page_size": 50,
  "total": 101,
  "total_pages": 3
}